{
  "name": "ar",
  "modes": [
    {
      "name": "Main",
      "keys": [
        {
          "character": "ض",
          "x": 0.0,
          "y": 0.0,
          "w": 0.9090909090909091
        },
        {
          "character": "ص",
          "x": 0.9090909090909091,
          "y": 0.0,
          "w": 0.9090909090909091
        },
        {
          "character": "ث",
          "x": 1.8181818181818181,
          "y": 0.0,
          "w": 0.9090909090909091
        },
        {
          "character": "ق",
          "x": 2.727272727272727,
          "y": 0.0,
          "w": 0.9090909090909091
        },
        {
          "character": "ف",
          "x": 3.6363636363636362,
          "y": 0.0,
          "w": 0.9090909090909091
        },
        {
          "character": "غ",
          "x": 4.545454545454545,
          "y": 0.0,
          "w": 0.9090909090909091
        },
        {
          "character": "ع",
          "x": 5.454545454545454,
          "y": 0.0,
          "w": 0.9090909090909091
        },
        {
          "character": "ه",
          "x": 6.363636363636363,
          "y": 0.0,
          "w": 0.9090909090909091
        },
        {
          "character": "خ",
          "x": 7.2727272727272725,
          "y": 0.0,
          "w": 0.9090909090909091
        },
        {
          "character": "ح",
          "x": 8.181818181818182,
          "y": 0.0,
          "w": 0.9090909090909091
        },
        {
          "character": "ج",
          "x": 9.09090909090909,
          "y": 0.0,
          "w": 0.9090909090909091
        },
        {
          "character": "ش",
          "x": 0.0,
          "y": 1.0,
          "w": 0.9090909090909091
        },
        {
          "character": "س",
          "x": 0.9090909090909091,
          "y": 1.0,
          "w": 0.9090909090909091
        },
        {
          "character": "ي",
          "x": 1.8181818181818181,
          "y": 1.0,
          "w": 0.9090909090909091
        },
        {
          "character": "ب",
          "x": 2.727272727272727,
          "y": 1.0,
          "w": 0.9090909090909091
        },
        {
          "character": "ل",
          "x": 3.6363636363636362,
          "y": 1.0,
          "w": 0.9090909090909091
        },
        {
          "character": "ا",
          "x": 4.545454545454545,
          "y": 1.0,
          "w": 0.9090909090909091
        },
        {
          "character": "ت",
          "x": 5.454545454545454,
          "y": 1.0,
          "w": 0.9090909090909091
        },
        {
          "character": "ن",
          "x": 6.363636363636363,
          "y": 1.0,
          "w": 0.9090909090909091
        },
        {
          "character": "م",
          "x": 7.2727272727272725,
          "y": 1.0,
          "w": 0.9090909090909091
        },
        {
          "character": "ك",
          "x": 8.181818181818182,
          "y": 1.0,
          "w": 0.9090909090909091
        },
        {
          "character": "ط",
          "x": 9.09090909090909,
          "y": 1.0,
          "w": 0.9090909090909091
        },
        {
          "label": "⇧",
          "x": 0.0,
          "y": 2.0,
          "w": 1.5,
          "target": "Capitals"
        },
        {
          "character": "ذ",
          "x": 1.5,
          "y": 2.0,
          "w": 0.7
        },
        {
          "character": "ء",
          "x": 2.2,
          "y": 2.0,
          "w": 0.7
        },
        {
          "character": "ؤ",
          "x": 2.9,
          "y": 2.0,
          "w": 0.7
        },
        {
          "character": "ر",
          "x": 3.5999999999999996,
          "y": 2.0,
          "w": 0.7
        },
        {
          "character": "ى",
          "x": 4.3,
          "y": 2.0,
          "w": 0.7
        },
        {
          "character": "ة",
          "x": 5.0,
          "y": 2.0,
          "w": 0.7
        },
        {
          "character": "و",
          "x": 5.699999999999999,
          "y": 2.0,
          "w": 0.7
        },
        {
          "character": "ز",
          "x": 6.3999999999999995,
          "y": 2.0,
          "w": 0.7
        },
        {
          "character": "ظ",
          "x": 7.1,
          "y": 2.0,
          "w": 0.7
        },
        {
          "character": "د",
          "x": 7.8,
          "y": 2.0,
          "w": 0.7
        },
        {
          "label": "⌫",
          "keyval": 65288,
          "x": 8.5,
          "y": 2.0,
          "w": 1.5
        },
        {
          "label": "?123",
          "x": 0.0,
          "y": 3.0,
          "w": 1.5,
          "target": "Numbers"
        },
        {
          "character": "،",
          "x": 1.5,
          "y": 3.0,
          "w": 1.0
        },
        {
          "label": "☺",
          "target": "Emoji",
          "x": 2.5,
          "y": 3.0,
          "w": 1.0
        },
        {
          "character": " ",
          "x": 3.5,
          "y": 3.0,
          "w": 4.0
        },
        {
          "character": ".",
          "x": 7.5,
          "y": 3.0,
          "w": 1.0
        },
        {
          "label": "↵",
          "character": "\n",
          "x": 8.5,
          "y": 3.0,
          "w": 1.5
        }
      ]
    },
    {
      "name": "Numbers",
      "keys": [
        {
          "character": "١",
          "x": 0.0,
          "y": 0.0,
          "w": 1.0
        },
        {
          "character": "٢",
          "x": 1.0,
          "y": 0.0,
          "w": 1.0
        },
        {
          "character": "٣",
          "x": 2.0,
          "y": 0.0,
          "w": 1.0
        },
        {
          "character": "٤",
          "x": 3.0,
          "y": 0.0,
          "w": 1.0
        },
        {
          "character": "٥",
          "x": 4.0,
          "y": 0.0,
          "w": 1.0
        },
        {
          "character": "٦",
          "x": 5.0,
          "y": 0.0,
          "w": 1.0
        },
        {
          "character": "٧",
          "x": 6.0,
          "y": 0.0,
          "w": 1.0
        },
        {
          "character": "٨",
          "x": 7.0,
          "y": 0.0,
          "w": 1.0
        },
        {
          "character": "٩",
          "x": 8.0,
          "y": 0.0,
          "w": 1.0
        },
        {
          "character": "٠",
          "x": 9.0,
          "y": 0.0,
          "w": 1.0
        },
        {
          "character": "@",
          "x": 0.5,
          "y": 1.0,
          "w": 1.0
        },
        {
          "character": "#",
          "x": 1.5,
          "y": 1.0,
          "w": 1.0
        },
        {
          "character": "$",
          "x": 2.5,
          "y": 1.0,
          "w": 1.0
        },
        {
          "character": "٪",
          "x": 3.5,
          "y": 1.0,
          "w": 1.0
        },
        {
          "character": "&",
          "x": 4.5,
          "y": 1.0,
          "w": 1.0
        },
        {
          "character": "-",
          "x": 5.5,
          "y": 1.0,
          "w": 1.0
        },
        {
          "character": "+",
          "x": 6.5,
          "y": 1.0,
          "w": 1.0
        },
        {
          "character": "(",
          "x": 7.5,
          "y": 1.0,
          "w": 1.0
        },
        {
          "character": ")",
          "x": 8.5,
          "y": 1.0,
          "w": 1.0
        },
        {
          "label": "=\\<",
          "x": 0.0,
          "y": 2.0,
          "w": 1.5,
          "target": "Special"
        },
        {
          "character": "*",
          "x": 1.5,
          "y": 2.0,
          "w": 1.0
        },
        {
          "character": "\"",
          "x": 2.5,
          "y": 2.0,
          "w": 1.0
        },
        {
          "character": "'",
          "x": 3.5,
          "y": 2.0,
          "w": 1.0
        },
        {
          "character": ":",
          "x": 4.5,
          "y": 2.0,
          "w": 1.0
        },
        {
          "character": "؛",
          "x": 5.5,
          "y": 2.0,
          "w": 1.0
        },
        {
          "character": "!",
          "x": 6.5,
          "y": 2.0,
          "w": 1.0
        },
        {
          "character": "؟",
          "x": 7.5,
          "y": 2.0,
          "w": 1.0
        },
        {
          "label": "⌫",
          "keyval": 65288,
          "x": 8.5,
          "y": 2.0,
          "w": 1.5
        },
        {
          "label": "ABC",
          "x": 0.0,
          "y": 3.0,
          "w": 1.5,
          "target": "Main"
        },
        {
          "character": "_",
          "x": 1.5,
          "y": 3.0,
          "w": 1.0
        },
        {
          "character": "/",
          "x": 2.5,
          "y": 3.0,
          "w": 1.0
        },
        {
          "character": " ",
          "x": 3.5,
          "y": 3.0,
          "w": 3.0
        },
        {
          "character": "،",
          "x": 6.5,
          "y": 3.0,
          "w": 1.0
        },
        {
          "character": ".",
          "x": 7.5,
          "y": 3.0,
          "w": 1.0
        },
        {
          "label": "↵",
          "character": "\n",
          "x": 8.5,
          "y": 3.0,
          "w": 1.5
        }
      ]
    },
    {
      "name": "Special",
      "keys": [
        {
          "character": "~",
          "x": 0.0,
          "y": 0.0,
          "w": 1.0
        },
        {
          "character": "`",
          "x": 1.0,
          "y": 0.0,
          "w": 1.0
        },
        {
          "character": "|",
          "x": 2.0,
          "y": 0.0,
          "w": 1.0
        },
        {
          "character": "•",
          "x": 3.0,
          "y": 0.0,
          "w": 1.0
        },
        {
          "character": "√",
          "x": 4.0,
          "y": 0.0,
          "w": 1.0
        },
        {
          "character": "Π",
          "x": 5.0,
          "y": 0.0,
          "w": 1.0
        },
        {
          "character": "÷",
          "x": 6.0,
          "y": 0.0,
          "w": 1.0
        },
        {
          "character": "×",
          "x": 7.0,
          "y": 0.0,
          "w": 1.0
        },
        {
          "character": "¶",
          "x": 8.0,
          "y": 0.0,
          "w": 1.0
        },
        {
          "character": "∆",
          "x": 9.0,
          "y": 0.0,
          "w": 1.0
        },
        {
          "character": "£",
          "x": 0.5,
          "y": 1.0,
          "w": 1.0
        },
        {
          "character": "¢",
          "x": 1.5,
          "y": 1.0,
          "w": 1.0
        },
        {
          "character": "€",
          "x": 2.5,
          "y": 1.0,
          "w": 1.0
        },
        {
          "character": "¥",
          "x": 3.5,
          "y": 1.0,
          "w": 1.0
        },
        {
          "character": "^",
          "x": 4.5,
          "y": 1.0,
          "w": 1.0
        },
        {
          "character": "°",
          "x": 5.5,
          "y": 1.0,
          "w": 1.0
        },
        {
          "character": "=",
          "x": 6.5,
          "y": 1.0,
          "w": 1.0
        },
        {
          "character": "{",
          "x": 7.5,
          "y": 1.0,
          "w": 1.0
        },
        {
          "character": "}",
          "x": 8.5,
          "y": 1.0,
          "w": 1.0
        },
        {
          "label": "?123",
          "x": 0.0,
          "y": 2.0,
          "w": 1.5,
          "target": "Numbers"
        },
        {
          "character": "\\",
          "x": 1.5,
          "y": 2.0,
          "w": 1.0
        },
        {
          "character": "©",
          "x": 2.5,
          "y": 2.0,
          "w": 1.0
        },
        {
          "character": "®",
          "x": 3.5,
          "y": 2.0,
          "w": 1.0
        },
        {
          "character": "™",
          "x": 4.5,
          "y": 2.0,
          "w": 1.0
        },
        {
          "character": "℅",
          "x": 5.5,
          "y": 2.0,
          "w": 1.0
        },
        {
          "character": "[",
          "x": 6.5,
          "y": 2.0,
          "w": 1.0
        },
        {
          "character": "]",
          "x": 7.5,
          "y": 2.0,
          "w": 1.0
        },
        {
          "label": "⌫",
          "keyval": 65288,
          "x": 8.5,
          "y": 2.0,
          "w": 1.5
        },
        {
          "label": "ABC",
          "x": 0.0,
          "y": 3.0,
          "w": 1.5,
          "target": "Main"
        },
        {
          "character": "<",
          "x": 1.5,
          "y": 3.0,
          "w": 1.0
        },
        {
          "character": ">",
          "x": 2.5,
          "y": 3.0,
          "w": 1.0
        },
        {
          "character": " ",
          "x": 3.5,
          "y": 3.0,
          "w": 3.0
        },
        {
          "character": "،",
          "x": 6.5,
          "y": 3.0,
          "w": 1.0
        },
        {
          "character": ".",
          "x": 7.5,
          "y": 3.0,
          "w": 1.0
        },
        {
          "label": "↵",
          "character": "\n",
          "x": 8.5,
          "y": 3.0,
          "w": 1.5
        }
      ]
    },
    {
      "name": "Emoji",
      "keys": [
        {
          "character": "😀",
          "x": 0.0,
          "y": 0.0,
          "w": 1.0
        },
        {
          "character": "😃",
          "x": 1.0,
          "y": 0.0,
          "w": 1.0
        },
        {
          "character": "😄",
          "x": 2.0,
          "y": 0.0,
          "w": 1.0
        },
        {
          "character": "😁",
          "x": 3.0,
          "y": 0.0,
          "w": 1.0
        },
        {
          "character": "😆",
          "x": 4.0,
          "y": 0.0,
          "w": 1.0
        },
        {
          "character": "😅",
          "x": 5.0,
          "y": 0.0,
          "w": 1.0
        },
        {
          "character": "🤣",
          "x": 6.0,
          "y": 0.0,
          "w": 1.0
        },
        {
          "character": "😂",
          "x": 7.0,
          "y": 0.0,
          "w": 1.0
        },
        {
          "character": "🙂",
          "x": 8.0,
          "y": 0.0,
          "w": 1.0
        },
        {
          "character": "🙃",
          "x": 9.0,
          "y": 0.0,
          "w": 1.0
        },
        {
          "character": "😉",
          "x": 0.0,
          "y": 1.0,
          "w": 1.0
        },
        {
          "character": "😊",
          "x": 1.0,
          "y": 1.0,
          "w": 1.0
        },
        {
          "character": "😊",
          "x": 2.0,
          "y": 1.0,
          "w": 1.0
        },
        {
          "character": "😇",
          "x": 3.0,
          "y": 1.0,
          "w": 1.0
        },
        {
          "character": "🥰",
          "x": 4.0,
          "y": 1.0,
          "w": 1.0
        },
        {
          "character": "😍",
          "x": 5.0,
          "y": 1.0,
          "w": 1.0
        },
        {
          "character": "🤩",
          "x": 6.0,
          "y": 1.0,
          "w": 1.0
        },
        {
          "character": "😘",
          "x": 7.0,
          "y": 1.0,
          "w": 1.0
        },
        {
          "character": "😗",
          "x": 8.0,
          "y": 1.0,
          "w": 1.0
        },
        {
          "character": "☺",
          "x": 9.0,
          "y": 1.0,
          "w": 1.0
        },
        {
          "character": "😚",
          "x": 0.0,
          "y": 2.0,
          "w": 1.0
        },
        {
          "character": "😙",
          "x": 1.0,
          "y": 2.0,
          "w": 1.0
        },
        {
          "character": "🥲",
          "x": 2.0,
          "y": 2.0,
          "w": 1.0
        },
        {
          "character": "😋",
          "x": 3.0,
          "y": 2.0,
          "w": 1.0
        },
        {
          "character": "😛",
          "x": 4.0,
          "y": 2.0,
          "w": 1.0
        },
        {
          "character": "😜",
          "x": 5.0,
          "y": 2.0,
          "w": 1.0
        },
        {
          "character": "🤪",
          "x": 6.0,
          "y": 2.0,
          "w": 1.0
        },
        {
          "character": "😝",
          "x": 7.0,
          "y": 2.0,
          "w": 1.0
        },
        {
          "character": "🤑",
          "x": 8.0,
          "y": 2.0,
          "w": 1.0
        },
        {
          "character": "🤗",
          "x": 9.0,
          "y": 2.0,
          "w": 1.0
        },
        {
          "label": "ABC",
          "x": 0.0,
          "y": 3.0,
          "w": 1.5,
          "target": "Main"
        },
        {
          "character": "🤭",
          "x": 1.5,
          "y": 3.0,
          "w": 1.0
        },
        {
          "character": "🤫",
          "x": 2.5,
          "y": 3.0,
          "w": 1.0
        },
        {
          "character": "🤔",
          "x": 3.5,
          "y": 3.0,
          "w": 1.0
        },
        {
          "character": "🤐",
          "x": 4.5,
          "y": 3.0,
          "w": 1.0
        },
        {
          "character": "🤨",
          "x": 5.5,
          "y": 3.0,
          "w": 1.0
        },
        {
          "character": "😐",
          "x": 6.5,
          "y": 3.0,
          "w": 1.0
        },
        {
          "character": "😑",
          "x": 7.5,
          "y": 3.0,
          "w": 1.0
        },
        {
          "label": "↵",
          "character": "\n",
          "x": 8.5,
          "y": 3.0,
          "w": 1.5
        }
      ]
    }
  ]
}