{
  "name": "hy",
  "modes": [
    {
      "name": "Main",
      "keys": [
        {
          "character": "ք",
          "x": 0.0,
          "y": 0.0,
          "w": 1.0
        },
        {
          "character": "ո",
          "x": 1.0,
          "y": 0.0,
          "w": 1.0
        },
        {
          "character": "ե",
          "x": 2.0,
          "y": 0.0,
          "w": 1.0
        },
        {
          "character": "ռ",
          "x": 3.0,
          "y": 0.0,
          "w": 1.0
        },
        {
          "character": "տ",
          "x": 4.0,
          "y": 0.0,
          "w": 1.0
        },
        {
          "character": "ը",
          "x": 5.0,
          "y": 0.0,
          "w": 1.0
        },
        {
          "character": "ւ",
          "x": 6.0,
          "y": 0.0,
          "w": 1.0
        },
        {
          "character": "ի",
          "x": 7.0,
          "y": 0.0,
          "w": 1.0
        },
        {
          "character": "օ",
          "x": 8.0,
          "y": 0.0,
          "w": 1.0
        },
        {
          "character": "պ",
          "x": 9.0,
          "y": 0.0,
          "w": 1.0
        },
        {
          "character": "ա",
          "x": 0.0,
          "y": 1.0,
          "w": 1.0
        },
        {
          "character": "ս",
          "x": 1.0,
          "y": 1.0,
          "w": 1.0
        },
        {
          "character": "դ",
          "x": 2.0,
          "y": 1.0,
          "w": 1.0
        },
        {
          "character": "ֆ",
          "x": 3.0,
          "y": 1.0,
          "w": 1.0
        },
        {
          "character": "գ",
          "x": 4.0,
          "y": 1.0,
          "w": 1.0
        },
        {
          "character": "հ",
          "x": 5.0,
          "y": 1.0,
          "w": 1.0
        },
        {
          "character": "յ",
          "x": 6.0,
          "y": 1.0,
          "w": 1.0
        },
        {
          "character": "կ",
          "x": 7.0,
          "y": 1.0,
          "w": 1.0
        },
        {
          "character": "լ",
          "x": 8.0,
          "y": 1.0,
          "w": 1.0
        },
        {
          "character": "խ",
          "x": 9.0,
          "y": 1.0,
          "w": 1.0
        },
        {
          "label": "⇧",
          "x": 0.0,
          "y": 2.0,
          "w": 1.5,
          "target": "Capitals"
        },
        {
          "character": "զ",
          "x": 1.5,
          "y": 2.0,
          "w": 0.875
        },
        {
          "character": "ղ",
          "x": 2.375,
          "y": 2.0,
          "w": 0.875
        },
        {
          "character": "ց",
          "x": 3.25,
          "y": 2.0,
          "w": 0.875
        },
        {
          "character": "վ",
          "x": 4.125,
          "y": 2.0,
          "w": 0.875
        },
        {
          "character": "բ",
          "x": 5.0,
          "y": 2.0,
          "w": 0.875
        },
        {
          "character": "ն",
          "x": 5.875,
          "y": 2.0,
          "w": 0.875
        },
        {
          "character": "մ",
          "x": 6.75,
          "y": 2.0,
          "w": 0.875
        },
        {
          "character": "շ",
          "x": 7.625,
          "y": 2.0,
          "w": 0.875
        },
        {
          "label": "⌫",
          "keyval": 65288,
          "x": 8.5,
          "y": 2.0,
          "w": 1.5
        },
        {
          "label": "?123",
          "x": 0.0,
          "y": 3.0,
          "w": 1.5,
          "target": "Numbers"
        },
        {
          "character": ",",
          "x": 1.5,
          "y": 3.0,
          "w": 1.0
        },
        {
          "label": "☺",
          "target": "Emoji",
          "x": 2.5,
          "y": 3.0,
          "w": 1.0
        },
        {
          "character": " ",
          "x": 3.5,
          "y": 3.0,
          "w": 4.0
        },
        {
          "character": "։",
          "x": 7.5,
          "y": 3.0,
          "w": 1.0
        },
        {
          "label": "↵",
          "character": "\n",
          "x": 8.5,
          "y": 3.0,
          "w": 1.5
        }
      ]
    },
    {
      "name": "Capitals",
      "keys": [
        {
          "character": "Ք",
          "x": 0.0,
          "y": 0.0,
          "w": 1.0
        },
        {
          "character": "Ո",
          "x": 1.0,
          "y": 0.0,
          "w": 1.0
        },
        {
          "character": "Ե",
          "x": 2.0,
          "y": 0.0,
          "w": 1.0
        },
        {
          "character": "Ռ",
          "x": 3.0,
          "y": 0.0,
          "w": 1.0
        },
        {
          "character": "Տ",
          "x": 4.0,
          "y": 0.0,
          "w": 1.0
        },
        {
          "character": "Ը",
          "x": 5.0,
          "y": 0.0,
          "w": 1.0
        },
        {
          "character": "Ւ",
          "x": 6.0,
          "y": 0.0,
          "w": 1.0
        },
        {
          "character": "Ի",
          "x": 7.0,
          "y": 0.0,
          "w": 1.0
        },
        {
          "character": "Օ",
          "x": 8.0,
          "y": 0.0,
          "w": 1.0
        },
        {
          "character": "Պ",
          "x": 9.0,
          "y": 0.0,
          "w": 1.0
        },
        {
          "character": "Ա",
          "x": 0.0,
          "y": 1.0,
          "w": 1.0
        },
        {
          "character": "Ս",
          "x": 1.0,
          "y": 1.0,
          "w": 1.0
        },
        {
          "character": "Դ",
          "x": 2.0,
          "y": 1.0,
          "w": 1.0
        },
        {
          "character": "Ֆ",
          "x": 3.0,
          "y": 1.0,
          "w": 1.0
        },
        {
          "character": "Գ",
          "x": 4.0,
          "y": 1.0,
          "w": 1.0
        },
        {
          "character": "Հ",
          "x": 5.0,
          "y": 1.0,
          "w": 1.0
        },
        {
          "character": "Յ",
          "x": 6.0,
          "y": 1.0,
          "w": 1.0
        },
        {
          "character": "Կ",
          "x": 7.0,
          "y": 1.0,
          "w": 1.0
        },
        {
          "character": "Լ",
          "x": 8.0,
          "y": 1.0,
          "w": 1.0
        },
        {
          "character": "Խ",
          "x": 9.0,
          "y": 1.0,
          "w": 1.0
        },
        {
          "label": "⇧",
          "x": 0.0,
          "y": 2.0,
          "w": 1.5,
          "target": "Main"
        },
        {
          "character": "Զ",
          "x": 1.5,
          "y": 2.0,
          "w": 0.875
        },
        {
          "character": "Ղ",
          "x": 2.375,
          "y": 2.0,
          "w": 0.875
        },
        {
          "character": "Ց",
          "x": 3.25,
          "y": 2.0,
          "w": 0.875
        },
        {
          "character": "Վ",
          "x": 4.125,
          "y": 2.0,
          "w": 0.875
        },
        {
          "character": "Բ",
          "x": 5.0,
          "y": 2.0,
          "w": 0.875
        },
        {
          "character": "Ն",
          "x": 5.875,
          "y": 2.0,
          "w": 0.875
        },
        {
          "character": "Մ",
          "x": 6.75,
          "y": 2.0,
          "w": 0.875
        },
        {
          "character": "Շ",
          "x": 7.625,
          "y": 2.0,
          "w": 0.875
        },
        {
          "label": "⌫",
          "keyval": 65288,
          "x": 8.5,
          "y": 2.0,
          "w": 1.5
        },
        {
          "label": "?123",
          "x": 0.0,
          "y": 3.0,
          "w": 1.5,
          "target": "Numbers"
        },
        {
          "character": ",",
          "x": 1.5,
          "y": 3.0,
          "w": 1.0
        },
        {
          "label": "☺",
          "target": "Emoji",
          "x": 2.5,
          "y": 3.0,
          "w": 1.0
        },
        {
          "character": " ",
          "x": 3.5,
          "y": 3.0,
          "w": 4.0
        },
        {
          "character": "։",
          "x": 7.5,
          "y": 3.0,
          "w": 1.0
        },
        {
          "label": "↵",
          "character": "\n",
          "x": 8.5,
          "y": 3.0,
          "w": 1.5
        }
      ]
    },
    {
      "name": "Numbers",
      "keys": [
        {
          "character": "1",
          "x": 0.0,
          "y": 0.0,
          "w": 1.0
        },
        {
          "character": "2",
          "x": 1.0,
          "y": 0.0,
          "w": 1.0
        },
        {
          "character": "3",
          "x": 2.0,
          "y": 0.0,
          "w": 1.0
        },
        {
          "character": "4",
          "x": 3.0,
          "y": 0.0,
          "w": 1.0
        },
        {
          "character": "5",
          "x": 4.0,
          "y": 0.0,
          "w": 1.0
        },
        {
          "character": "6",
          "x": 5.0,
          "y": 0.0,
          "w": 1.0
        },
        {
          "character": "7",
          "x": 6.0,
          "y": 0.0,
          "w": 1.0
        },
        {
          "character": "8",
          "x": 7.0,
          "y": 0.0,
          "w": 1.0
        },
        {
          "character": "9",
          "x": 8.0,
          "y": 0.0,
          "w": 1.0
        },
        {
          "character": "0",
          "x": 9.0,
          "y": 0.0,
          "w": 1.0
        },
        {
          "character": "@",
          "x": 0.5,
          "y": 1.0,
          "w": 1.0
        },
        {
          "character": "#",
          "x": 1.5,
          "y": 1.0,
          "w": 1.0
        },
        {
          "character": "$",
          "x": 2.5,
          "y": 1.0,
          "w": 1.0
        },
        {
          "character": "%",
          "x": 3.5,
          "y": 1.0,
          "w": 1.0
        },
        {
          "character": "&",
          "x": 4.5,
          "y": 1.0,
          "w": 1.0
        },
        {
          "character": "-",
          "x": 5.5,
          "y": 1.0,
          "w": 1.0
        },
        {
          "character": "+",
          "x": 6.5,
          "y": 1.0,
          "w": 1.0
        },
        {
          "character": "(",
          "x": 7.5,
          "y": 1.0,
          "w": 1.0
        },
        {
          "character": ")",
          "x": 8.5,
          "y": 1.0,
          "w": 1.0
        },
        {
          "label": "=\\<",
          "x": 0.0,
          "y": 2.0,
          "w": 1.5,
          "target": "Special"
        },
        {
          "character": "*",
          "x": 1.5,
          "y": 2.0,
          "w": 1.0
        },
        {
          "character": "\"",
          "x": 2.5,
          "y": 2.0,
          "w": 1.0
        },
        {
          "character": "'",
          "x": 3.5,
          "y": 2.0,
          "w": 1.0
        },
        {
          "character": ":",
          "x": 4.5,
          "y": 2.0,
          "w": 1.0
        },
        {
          "character": ";",
          "x": 5.5,
          "y": 2.0,
          "w": 1.0
        },
        {
          "character": "!",
          "x": 6.5,
          "y": 2.0,
          "w": 1.0
        },
        {
          "character": "?",
          "x": 7.5,
          "y": 2.0,
          "w": 1.0
        },
        {
          "label": "⌫",
          "keyval": 65288,
          "x": 8.5,
          "y": 2.0,
          "w": 1.5
        },
        {
          "label": "ABC",
          "x": 0.0,
          "y": 3.0,
          "w": 1.5,
          "target": "Main"
        },
        {
          "character": "_",
          "x": 1.5,
          "y": 3.0,
          "w": 1.0
        },
        {
          "character": "/",
          "x": 2.5,
          "y": 3.0,
          "w": 1.0
        },
        {
          "character": " ",
          "x": 3.5,
          "y": 3.0,
          "w": 3.0
        },
        {
          "character": "՝",
          "x": 6.5,
          "y": 3.0,
          "w": 1.0
        },
        {
          "character": "։",
          "x": 7.5,
          "y": 3.0,
          "w": 1.0
        },
        {
          "label": "↵",
          "character": "\n",
          "x": 8.5,
          "y": 3.0,
          "w": 1.5
        }
      ]
    },
    {
      "name": "Special",
      "keys": [
        {
          "character": "~",
          "x": 0.0,
          "y": 0.0,
          "w": 1.0
        },
        {
          "character": "`",
          "x": 1.0,
          "y": 0.0,
          "w": 1.0
        },
        {
          "character": "|",
          "x": 2.0,
          "y": 0.0,
          "w": 1.0
        },
        {
          "character": "•",
          "x": 3.0,
          "y": 0.0,
          "w": 1.0
        },
        {
          "character": "√",
          "x": 4.0,
          "y": 0.0,
          "w": 1.0
        },
        {
          "character": "Π",
          "x": 5.0,
          "y": 0.0,
          "w": 1.0
        },
        {
          "character": "÷",
          "x": 6.0,
          "y": 0.0,
          "w": 1.0
        },
        {
          "character": "×",
          "x": 7.0,
          "y": 0.0,
          "w": 1.0
        },
        {
          "character": "¶",
          "x": 8.0,
          "y": 0.0,
          "w": 1.0
        },
        {
          "character": "∆",
          "x": 9.0,
          "y": 0.0,
          "w": 1.0
        },
        {
          "character": "£",
          "x": 0.5,
          "y": 1.0,
          "w": 1.0
        },
        {
          "character": "¢",
          "x": 1.5,
          "y": 1.0,
          "w": 1.0
        },
        {
          "character": "€",
          "x": 2.5,
          "y": 1.0,
          "w": 1.0
        },
        {
          "character": "¥",
          "x": 3.5,
          "y": 1.0,
          "w": 1.0
        },
        {
          "character": "^",
          "x": 4.5,
          "y": 1.0,
          "w": 1.0
        },
        {
          "character": "°",
          "x": 5.5,
          "y": 1.0,
          "w": 1.0
        },
        {
          "character": "=",
          "x": 6.5,
          "y": 1.0,
          "w": 1.0
        },
        {
          "character": "{",
          "x": 7.5,
          "y": 1.0,
          "w": 1.0
        },
        {
          "character": "}",
          "x": 8.5,
          "y": 1.0,
          "w": 1.0
        },
        {
          "label": "?123",
          "x": 0.0,
          "y": 2.0,
          "w": 1.5,
          "target": "Numbers"
        },
        {
          "character": "\\",
          "x": 1.5,
          "y": 2.0,
          "w": 1.0
        },
        {
          "character": "©",
          "x": 2.5,
          "y": 2.0,
          "w": 1.0
        },
        {
          "character": "®",
          "x": 3.5,
          "y": 2.0,
          "w": 1.0
        },
        {
          "character": "™",
          "x": 4.5,
          "y": 2.0,
          "w": 1.0
        },
        {
          "character": "℅",
          "x": 5.5,
          "y": 2.0,
          "w": 1.0
        },
        {
          "character": "[",
          "x": 6.5,
          "y": 2.0,
          "w": 1.0
        },
        {
          "character": "]",
          "x": 7.5,
          "y": 2.0,
          "w": 1.0
        },
        {
          "label": "⌫",
          "keyval": 65288,
          "x": 8.5,
          "y": 2.0,
          "w": 1.5
        },
        {
          "label": "ABC",
          "x": 0.0,
          "y": 3.0,
          "w": 1.5,
          "target": "Main"
        },
        {
          "character": "<",
          "x": 1.5,
          "y": 3.0,
          "w": 1.0
        },
        {
          "character": ">",
          "x": 2.5,
          "y": 3.0,
          "w": 1.0
        },
        {
          "character": " ",
          "x": 3.5,
          "y": 3.0,
          "w": 3.0
        },
        {
          "character": "՝",
          "x": 6.5,
          "y": 3.0,
          "w": 1.0
        },
        {
          "character": "։",
          "x": 7.5,
          "y": 3.0,
          "w": 1.0
        },
        {
          "label": "↵",
          "character": "\n",
          "x": 8.5,
          "y": 3.0,
          "w": 1.5
        }
      ]
    },
    {
      "name": "Emoji",
      "keys": [
        {
          "character": "😀",
          "x": 0.0,
          "y": 0.0,
          "w": 1.0
        },
        {
          "character": "😃",
          "x": 1.0,
          "y": 0.0,
          "w": 1.0
        },
        {
          "character": "😄",
          "x": 2.0,
          "y": 0.0,
          "w": 1.0
        },
        {
          "character": "😁",
          "x": 3.0,
          "y": 0.0,
          "w": 1.0
        },
        {
          "character": "😆",
          "x": 4.0,
          "y": 0.0,
          "w": 1.0
        },
        {
          "character": "😅",
          "x": 5.0,
          "y": 0.0,
          "w": 1.0
        },
        {
          "character": "🤣",
          "x": 6.0,
          "y": 0.0,
          "w": 1.0
        },
        {
          "character": "😂",
          "x": 7.0,
          "y": 0.0,
          "w": 1.0
        },
        {
          "character": "🙂",
          "x": 8.0,
          "y": 0.0,
          "w": 1.0
        },
        {
          "character": "🙃",
          "x": 9.0,
          "y": 0.0,
          "w": 1.0
        },
        {
          "character": "😉",
          "x": 0.0,
          "y": 1.0,
          "w": 1.0
        },
        {
          "character": "😊",
          "x": 1.0,
          "y": 1.0,
          "w": 1.0
        },
        {
          "character": "😊",
          "x": 2.0,
          "y": 1.0,
          "w": 1.0
        },
        {
          "character": "😇",
          "x": 3.0,
          "y": 1.0,
          "w": 1.0
        },
        {
          "character": "🥰",
          "x": 4.0,
          "y": 1.0,
          "w": 1.0
        },
        {
          "character": "😍",
          "x": 5.0,
          "y": 1.0,
          "w": 1.0
        },
        {
          "character": "🤩",
          "x": 6.0,
          "y": 1.0,
          "w": 1.0
        },
        {
          "character": "😘",
          "x": 7.0,
          "y": 1.0,
          "w": 1.0
        },
        {
          "character": "😗",
          "x": 8.0,
          "y": 1.0,
          "w": 1.0
        },
        {
          "character": "☺",
          "x": 9.0,
          "y": 1.0,
          "w": 1.0
        },
        {
          "character": "😚",
          "x": 0.0,
          "y": 2.0,
          "w": 1.0
        },
        {
          "character": "😙",
          "x": 1.0,
          "y": 2.0,
          "w": 1.0
        },
        {
          "character": "🥲",
          "x": 2.0,
          "y": 2.0,
          "w": 1.0
        },
        {
          "character": "😋",
          "x": 3.0,
          "y": 2.0,
          "w": 1.0
        },
        {
          "character": "😛",
          "x": 4.0,
          "y": 2.0,
          "w": 1.0
        },
        {
          "character": "😜",
          "x": 5.0,
          "y": 2.0,
          "w": 1.0
        },
        {
          "character": "🤪",
          "x": 6.0,
          "y": 2.0,
          "w": 1.0
        },
        {
          "character": "😝",
          "x": 7.0,
          "y": 2.0,
          "w": 1.0
        },
        {
          "character": "🤑",
          "x": 8.0,
          "y": 2.0,
          "w": 1.0
        },
        {
          "character": "🤗",
          "x": 9.0,
          "y": 2.0,
          "w": 1.0
        },
        {
          "label": "ABC",
          "x": 0.0,
          "y": 3.0,
          "w": 1.5,
          "target": "Main"
        },
        {
          "character": "🤭",
          "x": 1.5,
          "y": 3.0,
          "w": 1.0
        },
        {
          "character": "🤫",
          "x": 2.5,
          "y": 3.0,
          "w": 1.0
        },
        {
          "character": "🤔",
          "x": 3.5,
          "y": 3.0,
          "w": 1.0
        },
        {
          "character": "🤐",
          "x": 4.5,
          "y": 3.0,
          "w": 1.0
        },
        {
          "character": "🤨",
          "x": 5.5,
          "y": 3.0,
          "w": 1.0
        },
        {
          "character": "😐",
          "x": 6.5,
          "y": 3.0,
          "w": 1.0
        },
        {
          "character": "😑",
          "x": 7.5,
          "y": 3.0,
          "w": 1.0
        },
        {
          "label": "↵",
          "character": "\n",
          "x": 8.5,
          "y": 3.0,
          "w": 1.5
        }
      ]
    }
  ]
}