{
  "name": "ro",
  "modes": [
    {
      "name": "Main",
      "keys": [
        {
          "character": "q",
          "x": 0.0,
          "y": 0.0,
          "w": 1.0
        },
        {
          "character": "w",
          "x": 1.0,
          "y": 0.0,
          "w": 1.0
        },
        {
          "character": "e",
          "x": 2.0,
          "y": 0.0,
          "w": 1.0
        },
        {
          "character": "r",
          "x": 3.0,
          "y": 0.0,
          "w": 1.0
        },
        {
          "character": "t",
          "x": 4.0,
          "y": 0.0,
          "w": 1.0
        },
        {
          "character": "y",
          "x": 5.0,
          "y": 0.0,
          "w": 1.0
        },
        {
          "character": "u",
          "x": 6.0,
          "y": 0.0,
          "w": 1.0
        },
        {
          "character": "i",
          "x": 7.0,
          "y": 0.0,
          "w": 1.0
        },
        {
          "character": "o",
          "x": 8.0,
          "y": 0.0,
          "w": 1.0
        },
        {
          "character": "p",
          "x": 9.0,
          "y": 0.0,
          "w": 1.0
        },
        {
          "character": "a",
          "x": 0.5,
          "y": 1.0,
          "w": 1.0
        },
        {
          "character": "s",
          "x": 1.5,
          "y": 1.0,
          "w": 1.0
        },
        {
          "character": "d",
          "x": 2.5,
          "y": 1.0,
          "w": 1.0
        },
        {
          "character": "f",
          "x": 3.5,
          "y": 1.0,
          "w": 1.0
        },
        {
          "character": "g",
          "x": 4.5,
          "y": 1.0,
          "w": 1.0
        },
        {
          "character": "h",
          "x": 5.5,
          "y": 1.0,
          "w": 1.0
        },
        {
          "character": "j",
          "x": 6.5,
          "y": 1.0,
          "w": 1.0
        },
        {
          "character": "k",
          "x": 7.5,
          "y": 1.0,
          "w": 1.0
        },
        {
          "character": "l",
          "x": 8.5,
          "y": 1.0,
          "w": 1.0
        },
        {
          "label": "⇧",
          "x": 0.0,
          "y": 2.0,
          "w": 1.5,
          "target": "Capitals"
        },
        {
          "character": "z",
          "x": 1.5,
          "y": 2.0,
          "w": 1.0
        },
        {
          "character": "x",
          "x": 2.5,
          "y": 2.0,
          "w": 1.0
        },
        {
          "character": "c",
          "x": 3.5,
          "y": 2.0,
          "w": 1.0
        },
        {
          "character": "v",
          "x": 4.5,
          "y": 2.0,
          "w": 1.0
        },
        {
          "character": "b",
          "x": 5.5,
          "y": 2.0,
          "w": 1.0
        },
        {
          "character": "n",
          "x": 6.5,
          "y": 2.0,
          "w": 1.0
        },
        {
          "character": "m",
          "x": 7.5,
          "y": 2.0,
          "w": 1.0
        },
        {
          "label": "⌫",
          "keyval": 65288,
          "x": 8.5,
          "y": 2.0,
          "w": 1.5
        },
        {
          "label": "?123",
          "x": 0.0,
          "y": 3.0,
          "w": 1.5,
          "target": "Numbers"
        },
        {
          "character": ",",
          "x": 1.5,
          "y": 3.0,
          "w": 1.0
        },
        {
          "label": "☺",
          "target": "Emoji",
          "x": 2.5,
          "y": 3.0,
          "w": 1.0
        },
        {
          "character": " ",
          "x": 3.5,
          "y": 3.0,
          "w": 4.0
        },
        {
          "character": ".",
          "x": 7.5,
          "y": 3.0,
          "w": 1.0
        },
        {
          "label": "↵",
          "character": "\n",
          "x": 8.5,
          "y": 3.0,
          "w": 1.5
        }
      ]
    },
    {
      "name": "Capitals",
      "keys": [
        {
          "character": "Q",
          "x": 0.0,
          "y": 0.0,
          "w": 1.0
        },
        {
          "character": "W",
          "x": 1.0,
          "y": 0.0,
          "w": 1.0
        },
        {
          "character": "E",
          "x": 2.0,
          "y": 0.0,
          "w": 1.0
        },
        {
          "character": "R",
          "x": 3.0,
          "y": 0.0,
          "w": 1.0
        },
        {
          "character": "T",
          "x": 4.0,
          "y": 0.0,
          "w": 1.0
        },
        {
          "character": "Y",
          "x": 5.0,
          "y": 0.0,
          "w": 1.0
        },
        {
          "character": "U",
          "x": 6.0,
          "y": 0.0,
          "w": 1.0
        },
        {
          "character": "I",
          "x": 7.0,
          "y": 0.0,
          "w": 1.0
        },
        {
          "character": "O",
          "x": 8.0,
          "y": 0.0,
          "w": 1.0
        },
        {
          "character": "P",
          "x": 9.0,
          "y": 0.0,
          "w": 1.0
        },
        {
          "character": "A",
          "x": 0.5,
          "y": 1.0,
          "w": 1.0
        },
        {
          "character": "S",
          "x": 1.5,
          "y": 1.0,
          "w": 1.0
        },
        {
          "character": "D",
          "x": 2.5,
          "y": 1.0,
          "w": 1.0
        },
        {
          "character": "F",
          "x": 3.5,
          "y": 1.0,
          "w": 1.0
        },
        {
          "character": "G",
          "x": 4.5,
          "y": 1.0,
          "w": 1.0
        },
        {
          "character": "H",
          "x": 5.5,
          "y": 1.0,
          "w": 1.0
        },
        {
          "character": "J",
          "x": 6.5,
          "y": 1.0,
          "w": 1.0
        },
        {
          "character": "K",
          "x": 7.5,
          "y": 1.0,
          "w": 1.0
        },
        {
          "character": "L",
          "x": 8.5,
          "y": 1.0,
          "w": 1.0
        },
        {
          "label": "⇧",
          "x": 0.0,
          "y": 2.0,
          "w": 1.5,
          "target": "Main"
        },
        {
          "character": "Z",
          "x": 1.5,
          "y": 2.0,
          "w": 1.0
        },
        {
          "character": "X",
          "x": 2.5,
          "y": 2.0,
          "w": 1.0
        },
        {
          "character": "C",
          "x": 3.5,
          "y": 2.0,
          "w": 1.0
        },
        {
          "character": "V",
          "x": 4.5,
          "y": 2.0,
          "w": 1.0
        },
        {
          "character": "B",
          "x": 5.5,
          "y": 2.0,
          "w": 1.0
        },
        {
          "character": "N",
          "x": 6.5,
          "y": 2.0,
          "w": 1.0
        },
        {
          "character": "M",
          "x": 7.5,
          "y": 2.0,
          "w": 1.0
        },
        {
          "label": "⌫",
          "keyval": 65288,
          "x": 8.5,
          "y": 2.0,
          "w": 1.5
        },
        {
          "label": "?123",
          "x": 0.0,
          "y": 3.0,
          "w": 1.5,
          "target": "Numbers"
        },
        {
          "character": ",",
          "x": 1.5,
          "y": 3.0,
          "w": 1.0
        },
        {
          "label": "☺",
          "target": "Emoji",
          "x": 2.5,
          "y": 3.0,
          "w": 1.0
        },
        {
          "character": " ",
          "x": 3.5,
          "y": 3.0,
          "w": 4.0
        },
        {
          "character": ".",
          "x": 7.5,
          "y": 3.0,
          "w": 1.0
        },
        {
          "label": "↵",
          "character": "\n",
          "x": 8.5,
          "y": 3.0,
          "w": 1.5
        }
      ]
    },
    {
      "name": "Numbers",
      "keys": [
        {
          "character": "1",
          "x": 0.0,
          "y": 0.0,
          "w": 1.0
        },
        {
          "character": "2",
          "x": 1.0,
          "y": 0.0,
          "w": 1.0
        },
        {
          "character": "3",
          "x": 2.0,
          "y": 0.0,
          "w": 1.0
        },
        {
          "character": "4",
          "x": 3.0,
          "y": 0.0,
          "w": 1.0
        },
        {
          "character": "5",
          "x": 4.0,
          "y": 0.0,
          "w": 1.0
        },
        {
          "character": "6",
          "x": 5.0,
          "y": 0.0,
          "w": 1.0
        },
        {
          "character": "7",
          "x": 6.0,
          "y": 0.0,
          "w": 1.0
        },
        {
          "character": "8",
          "x": 7.0,
          "y": 0.0,
          "w": 1.0
        },
        {
          "character": "9",
          "x": 8.0,
          "y": 0.0,
          "w": 1.0
        },
        {
          "character": "0",
          "x": 9.0,
          "y": 0.0,
          "w": 1.0
        },
        {
          "character": "@",
          "x": 0.5,
          "y": 1.0,
          "w": 1.0
        },
        {
          "character": "#",
          "x": 1.5,
          "y": 1.0,
          "w": 1.0
        },
        {
          "character": "$",
          "x": 2.5,
          "y": 1.0,
          "w": 1.0
        },
        {
          "character": "%",
          "x": 3.5,
          "y": 1.0,
          "w": 1.0
        },
        {
          "character": "&",
          "x": 4.5,
          "y": 1.0,
          "w": 1.0
        },
        {
          "character": "-",
          "x": 5.5,
          "y": 1.0,
          "w": 1.0
        },
        {
          "character": "+",
          "x": 6.5,
          "y": 1.0,
          "w": 1.0
        },
        {
          "character": "(",
          "x": 7.5,
          "y": 1.0,
          "w": 1.0
        },
        {
          "character": ")",
          "x": 8.5,
          "y": 1.0,
          "w": 1.0
        },
        {
          "label": "=\\<",
          "x": 0.0,
          "y": 2.0,
          "w": 1.5,
          "target": "Special"
        },
        {
          "character": "*",
          "x": 1.5,
          "y": 2.0,
          "w": 1.0
        },
        {
          "character": "\"",
          "x": 2.5,
          "y": 2.0,
          "w": 1.0
        },
        {
          "character": "'",
          "x": 3.5,
          "y": 2.0,
          "w": 1.0
        },
        {
          "character": ":",
          "x": 4.5,
          "y": 2.0,
          "w": 1.0
        },
        {
          "character": ";",
          "x": 5.5,
          "y": 2.0,
          "w": 1.0
        },
        {
          "character": "!",
          "x": 6.5,
          "y": 2.0,
          "w": 1.0
        },
        {
          "character": "?",
          "x": 7.5,
          "y": 2.0,
          "w": 1.0
        },
        {
          "label": "⌫",
          "keyval": 65288,
          "x": 8.5,
          "y": 2.0,
          "w": 1.5
        },
        {
          "label": "ABC",
          "x": 0.0,
          "y": 3.0,
          "w": 1.5,
          "target": "Main"
        },
        {
          "character": "_",
          "x": 1.5,
          "y": 3.0,
          "w": 1.0
        },
        {
          "character": "/",
          "x": 2.5,
          "y": 3.0,
          "w": 1.0
        },
        {
          "character": " ",
          "x": 3.5,
          "y": 3.0,
          "w": 3.0
        },
        {
          "character": ",",
          "x": 6.5,
          "y": 3.0,
          "w": 1.0
        },
        {
          "character": ".",
          "x": 7.5,
          "y": 3.0,
          "w": 1.0
        },
        {
          "label": "↵",
          "character": "\n",
          "x": 8.5,
          "y": 3.0,
          "w": 1.5
        }
      ]
    },
    {
      "name": "Special",
      "keys": [
        {
          "character": "~",
          "x": 0.0,
          "y": 0.0,
          "w": 1.0
        },
        {
          "character": "`",
          "x": 1.0,
          "y": 0.0,
          "w": 1.0
        },
        {
          "character": "|",
          "x": 2.0,
          "y": 0.0,
          "w": 1.0
        },
        {
          "character": "•",
          "x": 3.0,
          "y": 0.0,
          "w": 1.0
        },
        {
          "character": "√",
          "x": 4.0,
          "y": 0.0,
          "w": 1.0
        },
        {
          "character": "Π",
          "x": 5.0,
          "y": 0.0,
          "w": 1.0
        },
        {
          "character": "÷",
          "x": 6.0,
          "y": 0.0,
          "w": 1.0
        },
        {
          "character": "×",
          "x": 7.0,
          "y": 0.0,
          "w": 1.0
        },
        {
          "character": "¶",
          "x": 8.0,
          "y": 0.0,
          "w": 1.0
        },
        {
          "character": "∆",
          "x": 9.0,
          "y": 0.0,
          "w": 1.0
        },
        {
          "character": "£",
          "x": 0.5,
          "y": 1.0,
          "w": 1.0
        },
        {
          "character": "¢",
          "x": 1.5,
          "y": 1.0,
          "w": 1.0
        },
        {
          "character": "€",
          "x": 2.5,
          "y": 1.0,
          "w": 1.0
        },
        {
          "character": "¥",
          "x": 3.5,
          "y": 1.0,
          "w": 1.0
        },
        {
          "character": "^",
          "x": 4.5,
          "y": 1.0,
          "w": 1.0
        },
        {
          "character": "°",
          "x": 5.5,
          "y": 1.0,
          "w": 1.0
        },
        {
          "character": "=",
          "x": 6.5,
          "y": 1.0,
          "w": 1.0
        },
        {
          "character": "{",
          "x": 7.5,
          "y": 1.0,
          "w": 1.0
        },
        {
          "character": "}",
          "x": 8.5,
          "y": 1.0,
          "w": 1.0
        },
        {
          "label": "?123",
          "x": 0.0,
          "y": 2.0,
          "w": 1.5,
          "target": "Numbers"
        },
        {
          "character": "\\",
          "x": 1.5,
          "y": 2.0,
          "w": 1.0
        },
        {
          "character": "©",
          "x": 2.5,
          "y": 2.0,
          "w": 1.0
        },
        {
          "character": "®",
          "x": 3.5,
          "y": 2.0,
          "w": 1.0
        },
        {
          "character": "™",
          "x": 4.5,
          "y": 2.0,
          "w": 1.0
        },
        {
          "character": "℅",
          "x": 5.5,
          "y": 2.0,
          "w": 1.0
        },
        {
          "character": "[",
          "x": 6.5,
          "y": 2.0,
          "w": 1.0
        },
        {
          "character": "]",
          "x": 7.5,
          "y": 2.0,
          "w": 1.0
        },
        {
          "label": "⌫",
          "keyval": 65288,
          "x": 8.5,
          "y": 2.0,
          "w": 1.5
        },
        {
          "label": "ABC",
          "x": 0.0,
          "y": 3.0,
          "w": 1.5,
          "target": "Main"
        },
        {
          "character": "<",
          "x": 1.5,
          "y": 3.0,
          "w": 1.0
        },
        {
          "character": ">",
          "x": 2.5,
          "y": 3.0,
          "w": 1.0
        },
        {
          "character": " ",
          "x": 3.5,
          "y": 3.0,
          "w": 3.0
        },
        {
          "character": ",",
          "x": 6.5,
          "y": 3.0,
          "w": 1.0
        },
        {
          "character": ".",
          "x": 7.5,
          "y": 3.0,
          "w": 1.0
        },
        {
          "label": "↵",
          "character": "\n",
          "x": 8.5,
          "y": 3.0,
          "w": 1.5
        }
      ]
    },
    {
      "name": "Emoji",
      "keys": [
        {
          "character": "😀",
          "x": 0.0,
          "y": 0.0,
          "w": 1.0
        },
        {
          "character": "😃",
          "x": 1.0,
          "y": 0.0,
          "w": 1.0
        },
        {
          "character": "😄",
          "x": 2.0,
          "y": 0.0,
          "w": 1.0
        },
        {
          "character": "😁",
          "x": 3.0,
          "y": 0.0,
          "w": 1.0
        },
        {
          "character": "😆",
          "x": 4.0,
          "y": 0.0,
          "w": 1.0
        },
        {
          "character": "😅",
          "x": 5.0,
          "y": 0.0,
          "w": 1.0
        },
        {
          "character": "🤣",
          "x": 6.0,
          "y": 0.0,
          "w": 1.0
        },
        {
          "character": "😂",
          "x": 7.0,
          "y": 0.0,
          "w": 1.0
        },
        {
          "character": "🙂",
          "x": 8.0,
          "y": 0.0,
          "w": 1.0
        },
        {
          "character": "🙃",
          "x": 9.0,
          "y": 0.0,
          "w": 1.0
        },
        {
          "character": "😉",
          "x": 0.0,
          "y": 1.0,
          "w": 1.0
        },
        {
          "character": "😊",
          "x": 1.0,
          "y": 1.0,
          "w": 1.0
        },
        {
          "character": "😊",
          "x": 2.0,
          "y": 1.0,
          "w": 1.0
        },
        {
          "character": "😇",
          "x": 3.0,
          "y": 1.0,
          "w": 1.0
        },
        {
          "character": "🥰",
          "x": 4.0,
          "y": 1.0,
          "w": 1.0
        },
        {
          "character": "😍",
          "x": 5.0,
          "y": 1.0,
          "w": 1.0
        },
        {
          "character": "🤩",
          "x": 6.0,
          "y": 1.0,
          "w": 1.0
        },
        {
          "character": "😘",
          "x": 7.0,
          "y": 1.0,
          "w": 1.0
        },
        {
          "character": "😗",
          "x": 8.0,
          "y": 1.0,
          "w": 1.0
        },
        {
          "character": "☺",
          "x": 9.0,
          "y": 1.0,
          "w": 1.0
        },
        {
          "character": "😚",
          "x": 0.0,
          "y": 2.0,
          "w": 1.0
        },
        {
          "character": "😙",
          "x": 1.0,
          "y": 2.0,
          "w": 1.0
        },
        {
          "character": "🥲",
          "x": 2.0,
          "y": 2.0,
          "w": 1.0
        },
        {
          "character": "😋",
          "x": 3.0,
          "y": 2.0,
          "w": 1.0
        },
        {
          "character": "😛",
          "x": 4.0,
          "y": 2.0,
          "w": 1.0
        },
        {
          "character": "😜",
          "x": 5.0,
          "y": 2.0,
          "w": 1.0
        },
        {
          "character": "🤪",
          "x": 6.0,
          "y": 2.0,
          "w": 1.0
        },
        {
          "character": "😝",
          "x": 7.0,
          "y": 2.0,
          "w": 1.0
        },
        {
          "character": "🤑",
          "x": 8.0,
          "y": 2.0,
          "w": 1.0
        },
        {
          "character": "🤗",
          "x": 9.0,
          "y": 2.0,
          "w": 1.0
        },
        {
          "label": "ABC",
          "x": 0.0,
          "y": 3.0,
          "w": 1.5,
          "target": "Main"
        },
        {
          "character": "🤭",
          "x": 1.5,
          "y": 3.0,
          "w": 1.0
        },
        {
          "character": "🤫",
          "x": 2.5,
          "y": 3.0,
          "w": 1.0
        },
        {
          "character": "🤔",
          "x": 3.5,
          "y": 3.0,
          "w": 1.0
        },
        {
          "character": "🤐",
          "x": 4.5,
          "y": 3.0,
          "w": 1.0
        },
        {
          "character": "🤨",
          "x": 5.5,
          "y": 3.0,
          "w": 1.0
        },
        {
          "character": "😐",
          "x": 6.5,
          "y": 3.0,
          "w": 1.0
        },
        {
          "character": "😑",
          "x": 7.5,
          "y": 3.0,
          "w": 1.0
        },
        {
          "label": "↵",
          "character": "\n",
          "x": 8.5,
          "y": 3.0,
          "w": 1.5
        }
      ]
    }
  ]
}