{
  "name": "sr",
  "modes": [
    {
      "name": "Main",
      "keys": [
        {
          "character": "љ",
          "x": 0.0,
          "y": 0.0,
          "w": 0.9090909090909091
        },
        {
          "character": "њ",
          "x": 0.9090909090909091,
          "y": 0.0,
          "w": 0.9090909090909091
        },
        {
          "character": "е",
          "x": 1.8181818181818181,
          "y": 0.0,
          "w": 0.9090909090909091
        },
        {
          "character": "р",
          "x": 2.727272727272727,
          "y": 0.0,
          "w": 0.9090909090909091
        },
        {
          "character": "т",
          "x": 3.6363636363636362,
          "y": 0.0,
          "w": 0.9090909090909091
        },
        {
          "character": "з",
          "x": 4.545454545454545,
          "y": 0.0,
          "w": 0.9090909090909091
        },
        {
          "character": "у",
          "x": 5.454545454545454,
          "y": 0.0,
          "w": 0.9090909090909091
        },
        {
          "character": "и",
          "x": 6.363636363636363,
          "y": 0.0,
          "w": 0.9090909090909091
        },
        {
          "character": "о",
          "x": 7.2727272727272725,
          "y": 0.0,
          "w": 0.9090909090909091
        },
        {
          "character": "п",
          "x": 8.181818181818182,
          "y": 0.0,
          "w": 0.9090909090909091
        },
        {
          "character": "ш",
          "x": 9.09090909090909,
          "y": 0.0,
          "w": 0.9090909090909091
        },
        {
          "character": "а",
          "x": 0.0,
          "y": 1.0,
          "w": 0.9090909090909091
        },
        {
          "character": "с",
          "x": 0.9090909090909091,
          "y": 1.0,
          "w": 0.9090909090909091
        },
        {
          "character": "д",
          "x": 1.8181818181818181,
          "y": 1.0,
          "w": 0.9090909090909091
        },
        {
          "character": "ф",
          "x": 2.727272727272727,
          "y": 1.0,
          "w": 0.9090909090909091
        },
        {
          "character": "г",
          "x": 3.6363636363636362,
          "y": 1.0,
          "w": 0.9090909090909091
        },
        {
          "character": "х",
          "x": 4.545454545454545,
          "y": 1.0,
          "w": 0.9090909090909091
        },
        {
          "character": "ј",
          "x": 5.454545454545454,
          "y": 1.0,
          "w": 0.9090909090909091
        },
        {
          "character": "к",
          "x": 6.363636363636363,
          "y": 1.0,
          "w": 0.9090909090909091
        },
        {
          "character": "л",
          "x": 7.2727272727272725,
          "y": 1.0,
          "w": 0.9090909090909091
        },
        {
          "character": "ч",
          "x": 8.181818181818182,
          "y": 1.0,
          "w": 0.9090909090909091
        },
        {
          "character": "ћ",
          "x": 9.09090909090909,
          "y": 1.0,
          "w": 0.9090909090909091
        },
        {
          "label": "⇧",
          "x": 0.0,
          "y": 2.0,
          "w": 1.5,
          "target": "Capitals"
        },
        {
          "character": "ѕ",
          "x": 1.5,
          "y": 2.0,
          "w": 0.7777777777777778
        },
        {
          "character": "џ",
          "x": 2.2777777777777777,
          "y": 2.0,
          "w": 0.7777777777777778
        },
        {
          "character": "ц",
          "x": 3.0555555555555554,
          "y": 2.0,
          "w": 0.7777777777777778
        },
        {
          "character": "в",
          "x": 3.8333333333333335,
          "y": 2.0,
          "w": 0.7777777777777778
        },
        {
          "character": "б",
          "x": 4.611111111111111,
          "y": 2.0,
          "w": 0.7777777777777778
        },
        {
          "character": "н",
          "x": 5.388888888888889,
          "y": 2.0,
          "w": 0.7777777777777778
        },
        {
          "character": "м",
          "x": 6.166666666666667,
          "y": 2.0,
          "w": 0.7777777777777778
        },
        {
          "character": "ђ",
          "x": 6.944444444444445,
          "y": 2.0,
          "w": 0.7777777777777778
        },
        {
          "character": "ж",
          "x": 7.722222222222222,
          "y": 2.0,
          "w": 0.7777777777777778
        },
        {
          "label": "⌫",
          "keyval": 65288,
          "x": 8.5,
          "y": 2.0,
          "w": 1.5
        },
        {
          "label": "?123",
          "x": 0.0,
          "y": 3.0,
          "w": 1.5,
          "target": "Numbers"
        },
        {
          "character": ",",
          "x": 1.5,
          "y": 3.0,
          "w": 1.0
        },
        {
          "label": "☺",
          "target": "Emoji",
          "x": 2.5,
          "y": 3.0,
          "w": 1.0
        },
        {
          "character": " ",
          "x": 3.5,
          "y": 3.0,
          "w": 4.0
        },
        {
          "character": ".",
          "x": 7.5,
          "y": 3.0,
          "w": 1.0
        },
        {
          "label": "↵",
          "character": "\n",
          "x": 8.5,
          "y": 3.0,
          "w": 1.5
        }
      ]
    },
    {
      "name": "Capitals",
      "keys": [
        {
          "character": "Љ",
          "x": 0.0,
          "y": 0.0,
          "w": 0.9090909090909091
        },
        {
          "character": "Њ",
          "x": 0.9090909090909091,
          "y": 0.0,
          "w": 0.9090909090909091
        },
        {
          "character": "Е",
          "x": 1.8181818181818181,
          "y": 0.0,
          "w": 0.9090909090909091
        },
        {
          "character": "Р",
          "x": 2.727272727272727,
          "y": 0.0,
          "w": 0.9090909090909091
        },
        {
          "character": "Т",
          "x": 3.6363636363636362,
          "y": 0.0,
          "w": 0.9090909090909091
        },
        {
          "character": "З",
          "x": 4.545454545454545,
          "y": 0.0,
          "w": 0.9090909090909091
        },
        {
          "character": "У",
          "x": 5.454545454545454,
          "y": 0.0,
          "w": 0.9090909090909091
        },
        {
          "character": "И",
          "x": 6.363636363636363,
          "y": 0.0,
          "w": 0.9090909090909091
        },
        {
          "character": "О",
          "x": 7.2727272727272725,
          "y": 0.0,
          "w": 0.9090909090909091
        },
        {
          "character": "П",
          "x": 8.181818181818182,
          "y": 0.0,
          "w": 0.9090909090909091
        },
        {
          "character": "Ш",
          "x": 9.09090909090909,
          "y": 0.0,
          "w": 0.9090909090909091
        },
        {
          "character": "А",
          "x": 0.0,
          "y": 1.0,
          "w": 0.9090909090909091
        },
        {
          "character": "С",
          "x": 0.9090909090909091,
          "y": 1.0,
          "w": 0.9090909090909091
        },
        {
          "character": "Д",
          "x": 1.8181818181818181,
          "y": 1.0,
          "w": 0.9090909090909091
        },
        {
          "character": "Ф",
          "x": 2.727272727272727,
          "y": 1.0,
          "w": 0.9090909090909091
        },
        {
          "character": "Г",
          "x": 3.6363636363636362,
          "y": 1.0,
          "w": 0.9090909090909091
        },
        {
          "character": "Х",
          "x": 4.545454545454545,
          "y": 1.0,
          "w": 0.9090909090909091
        },
        {
          "character": "Ј",
          "x": 5.454545454545454,
          "y": 1.0,
          "w": 0.9090909090909091
        },
        {
          "character": "К",
          "x": 6.363636363636363,
          "y": 1.0,
          "w": 0.9090909090909091
        },
        {
          "character": "Л",
          "x": 7.2727272727272725,
          "y": 1.0,
          "w": 0.9090909090909091
        },
        {
          "character": "Ч",
          "x": 8.181818181818182,
          "y": 1.0,
          "w": 0.9090909090909091
        },
        {
          "character": "Ћ",
          "x": 9.09090909090909,
          "y": 1.0,
          "w": 0.9090909090909091
        },
        {
          "label": "⇧",
          "x": 0.0,
          "y": 2.0,
          "w": 1.5,
          "target": "Main"
        },
        {
          "character": "Ѕ",
          "x": 1.5,
          "y": 2.0,
          "w": 0.7777777777777778
        },
        {
          "character": "Џ",
          "x": 2.2777777777777777,
          "y": 2.0,
          "w": 0.7777777777777778
        },
        {
          "character": "Ц",
          "x": 3.0555555555555554,
          "y": 2.0,
          "w": 0.7777777777777778
        },
        {
          "character": "В",
          "x": 3.8333333333333335,
          "y": 2.0,
          "w": 0.7777777777777778
        },
        {
          "character": "Б",
          "x": 4.611111111111111,
          "y": 2.0,
          "w": 0.7777777777777778
        },
        {
          "character": "Н",
          "x": 5.388888888888889,
          "y": 2.0,
          "w": 0.7777777777777778
        },
        {
          "character": "М",
          "x": 6.166666666666667,
          "y": 2.0,
          "w": 0.7777777777777778
        },
        {
          "character": "Ђ",
          "x": 6.944444444444445,
          "y": 2.0,
          "w": 0.7777777777777778
        },
        {
          "character": "Ж",
          "x": 7.722222222222222,
          "y": 2.0,
          "w": 0.7777777777777778
        },
        {
          "label": "⌫",
          "keyval": 65288,
          "x": 8.5,
          "y": 2.0,
          "w": 1.5
        },
        {
          "label": "?123",
          "x": 0.0,
          "y": 3.0,
          "w": 1.5,
          "target": "Numbers"
        },
        {
          "character": ",",
          "x": 1.5,
          "y": 3.0,
          "w": 1.0
        },
        {
          "label": "☺",
          "target": "Emoji",
          "x": 2.5,
          "y": 3.0,
          "w": 1.0
        },
        {
          "character": " ",
          "x": 3.5,
          "y": 3.0,
          "w": 4.0
        },
        {
          "character": ".",
          "x": 7.5,
          "y": 3.0,
          "w": 1.0
        },
        {
          "label": "↵",
          "character": "\n",
          "x": 8.5,
          "y": 3.0,
          "w": 1.5
        }
      ]
    },
    {
      "name": "Numbers",
      "keys": [
        {
          "character": "1",
          "x": 0.0,
          "y": 0.0,
          "w": 1.0
        },
        {
          "character": "2",
          "x": 1.0,
          "y": 0.0,
          "w": 1.0
        },
        {
          "character": "3",
          "x": 2.0,
          "y": 0.0,
          "w": 1.0
        },
        {
          "character": "4",
          "x": 3.0,
          "y": 0.0,
          "w": 1.0
        },
        {
          "character": "5",
          "x": 4.0,
          "y": 0.0,
          "w": 1.0
        },
        {
          "character": "6",
          "x": 5.0,
          "y": 0.0,
          "w": 1.0
        },
        {
          "character": "7",
          "x": 6.0,
          "y": 0.0,
          "w": 1.0
        },
        {
          "character": "8",
          "x": 7.0,
          "y": 0.0,
          "w": 1.0
        },
        {
          "character": "9",
          "x": 8.0,
          "y": 0.0,
          "w": 1.0
        },
        {
          "character": "0",
          "x": 9.0,
          "y": 0.0,
          "w": 1.0
        },
        {
          "character": "@",
          "x": 0.5,
          "y": 1.0,
          "w": 1.0
        },
        {
          "character": "#",
          "x": 1.5,
          "y": 1.0,
          "w": 1.0
        },
        {
          "character": "$",
          "x": 2.5,
          "y": 1.0,
          "w": 1.0
        },
        {
          "character": "%",
          "x": 3.5,
          "y": 1.0,
          "w": 1.0
        },
        {
          "character": "&",
          "x": 4.5,
          "y": 1.0,
          "w": 1.0
        },
        {
          "character": "-",
          "x": 5.5,
          "y": 1.0,
          "w": 1.0
        },
        {
          "character": "+",
          "x": 6.5,
          "y": 1.0,
          "w": 1.0
        },
        {
          "character": "(",
          "x": 7.5,
          "y": 1.0,
          "w": 1.0
        },
        {
          "character": ")",
          "x": 8.5,
          "y": 1.0,
          "w": 1.0
        },
        {
          "label": "=\\<",
          "x": 0.0,
          "y": 2.0,
          "w": 1.5,
          "target": "Special"
        },
        {
          "character": "*",
          "x": 1.5,
          "y": 2.0,
          "w": 1.0
        },
        {
          "character": "\"",
          "x": 2.5,
          "y": 2.0,
          "w": 1.0
        },
        {
          "character": "'",
          "x": 3.5,
          "y": 2.0,
          "w": 1.0
        },
        {
          "character": ":",
          "x": 4.5,
          "y": 2.0,
          "w": 1.0
        },
        {
          "character": ";",
          "x": 5.5,
          "y": 2.0,
          "w": 1.0
        },
        {
          "character": "!",
          "x": 6.5,
          "y": 2.0,
          "w": 1.0
        },
        {
          "character": "?",
          "x": 7.5,
          "y": 2.0,
          "w": 1.0
        },
        {
          "label": "⌫",
          "keyval": 65288,
          "x": 8.5,
          "y": 2.0,
          "w": 1.5
        },
        {
          "label": "ABC",
          "x": 0.0,
          "y": 3.0,
          "w": 1.5,
          "target": "Main"
        },
        {
          "character": "_",
          "x": 1.5,
          "y": 3.0,
          "w": 1.0
        },
        {
          "character": "/",
          "x": 2.5,
          "y": 3.0,
          "w": 1.0
        },
        {
          "character": " ",
          "x": 3.5,
          "y": 3.0,
          "w": 3.0
        },
        {
          "character": ",",
          "x": 6.5,
          "y": 3.0,
          "w": 1.0
        },
        {
          "character": ".",
          "x": 7.5,
          "y": 3.0,
          "w": 1.0
        },
        {
          "label": "↵",
          "character": "\n",
          "x": 8.5,
          "y": 3.0,
          "w": 1.5
        }
      ]
    },
    {
      "name": "Special",
      "keys": [
        {
          "character": "~",
          "x": 0.0,
          "y": 0.0,
          "w": 1.0
        },
        {
          "character": "`",
          "x": 1.0,
          "y": 0.0,
          "w": 1.0
        },
        {
          "character": "|",
          "x": 2.0,
          "y": 0.0,
          "w": 1.0
        },
        {
          "character": "•",
          "x": 3.0,
          "y": 0.0,
          "w": 1.0
        },
        {
          "character": "√",
          "x": 4.0,
          "y": 0.0,
          "w": 1.0
        },
        {
          "character": "Π",
          "x": 5.0,
          "y": 0.0,
          "w": 1.0
        },
        {
          "character": "÷",
          "x": 6.0,
          "y": 0.0,
          "w": 1.0
        },
        {
          "character": "×",
          "x": 7.0,
          "y": 0.0,
          "w": 1.0
        },
        {
          "character": "¶",
          "x": 8.0,
          "y": 0.0,
          "w": 1.0
        },
        {
          "character": "∆",
          "x": 9.0,
          "y": 0.0,
          "w": 1.0
        },
        {
          "character": "£",
          "x": 0.5,
          "y": 1.0,
          "w": 1.0
        },
        {
          "character": "¢",
          "x": 1.5,
          "y": 1.0,
          "w": 1.0
        },
        {
          "character": "€",
          "x": 2.5,
          "y": 1.0,
          "w": 1.0
        },
        {
          "character": "¥",
          "x": 3.5,
          "y": 1.0,
          "w": 1.0
        },
        {
          "character": "^",
          "x": 4.5,
          "y": 1.0,
          "w": 1.0
        },
        {
          "character": "°",
          "x": 5.5,
          "y": 1.0,
          "w": 1.0
        },
        {
          "character": "=",
          "x": 6.5,
          "y": 1.0,
          "w": 1.0
        },
        {
          "character": "{",
          "x": 7.5,
          "y": 1.0,
          "w": 1.0
        },
        {
          "character": "}",
          "x": 8.5,
          "y": 1.0,
          "w": 1.0
        },
        {
          "label": "?123",
          "x": 0.0,
          "y": 2.0,
          "w": 1.5,
          "target": "Numbers"
        },
        {
          "character": "\\",
          "x": 1.5,
          "y": 2.0,
          "w": 1.0
        },
        {
          "character": "©",
          "x": 2.5,
          "y": 2.0,
          "w": 1.0
        },
        {
          "character": "®",
          "x": 3.5,
          "y": 2.0,
          "w": 1.0
        },
        {
          "character": "™",
          "x": 4.5,
          "y": 2.0,
          "w": 1.0
        },
        {
          "character": "℅",
          "x": 5.5,
          "y": 2.0,
          "w": 1.0
        },
        {
          "character": "[",
          "x": 6.5,
          "y": 2.0,
          "w": 1.0
        },
        {
          "character": "]",
          "x": 7.5,
          "y": 2.0,
          "w": 1.0
        },
        {
          "label": "⌫",
          "keyval": 65288,
          "x": 8.5,
          "y": 2.0,
          "w": 1.5
        },
        {
          "label": "ABC",
          "x": 0.0,
          "y": 3.0,
          "w": 1.5,
          "target": "Main"
        },
        {
          "character": "<",
          "x": 1.5,
          "y": 3.0,
          "w": 1.0
        },
        {
          "character": ">",
          "x": 2.5,
          "y": 3.0,
          "w": 1.0
        },
        {
          "character": " ",
          "x": 3.5,
          "y": 3.0,
          "w": 3.0
        },
        {
          "character": ",",
          "x": 6.5,
          "y": 3.0,
          "w": 1.0
        },
        {
          "character": ".",
          "x": 7.5,
          "y": 3.0,
          "w": 1.0
        },
        {
          "label": "↵",
          "character": "\n",
          "x": 8.5,
          "y": 3.0,
          "w": 1.5
        }
      ]
    },
    {
      "name": "Emoji",
      "keys": [
        {
          "character": "😀",
          "x": 0.0,
          "y": 0.0,
          "w": 1.0
        },
        {
          "character": "😃",
          "x": 1.0,
          "y": 0.0,
          "w": 1.0
        },
        {
          "character": "😄",
          "x": 2.0,
          "y": 0.0,
          "w": 1.0
        },
        {
          "character": "😁",
          "x": 3.0,
          "y": 0.0,
          "w": 1.0
        },
        {
          "character": "😆",
          "x": 4.0,
          "y": 0.0,
          "w": 1.0
        },
        {
          "character": "😅",
          "x": 5.0,
          "y": 0.0,
          "w": 1.0
        },
        {
          "character": "🤣",
          "x": 6.0,
          "y": 0.0,
          "w": 1.0
        },
        {
          "character": "😂",
          "x": 7.0,
          "y": 0.0,
          "w": 1.0
        },
        {
          "character": "🙂",
          "x": 8.0,
          "y": 0.0,
          "w": 1.0
        },
        {
          "character": "🙃",
          "x": 9.0,
          "y": 0.0,
          "w": 1.0
        },
        {
          "character": "😉",
          "x": 0.0,
          "y": 1.0,
          "w": 1.0
        },
        {
          "character": "😊",
          "x": 1.0,
          "y": 1.0,
          "w": 1.0
        },
        {
          "character": "😊",
          "x": 2.0,
          "y": 1.0,
          "w": 1.0
        },
        {
          "character": "😇",
          "x": 3.0,
          "y": 1.0,
          "w": 1.0
        },
        {
          "character": "🥰",
          "x": 4.0,
          "y": 1.0,
          "w": 1.0
        },
        {
          "character": "😍",
          "x": 5.0,
          "y": 1.0,
          "w": 1.0
        },
        {
          "character": "🤩",
          "x": 6.0,
          "y": 1.0,
          "w": 1.0
        },
        {
          "character": "😘",
          "x": 7.0,
          "y": 1.0,
          "w": 1.0
        },
        {
          "character": "😗",
          "x": 8.0,
          "y": 1.0,
          "w": 1.0
        },
        {
          "character": "☺",
          "x": 9.0,
          "y": 1.0,
          "w": 1.0
        },
        {
          "character": "😚",
          "x": 0.0,
          "y": 2.0,
          "w": 1.0
        },
        {
          "character": "😙",
          "x": 1.0,
          "y": 2.0,
          "w": 1.0
        },
        {
          "character": "🥲",
          "x": 2.0,
          "y": 2.0,
          "w": 1.0
        },
        {
          "character": "😋",
          "x": 3.0,
          "y": 2.0,
          "w": 1.0
        },
        {
          "character": "😛",
          "x": 4.0,
          "y": 2.0,
          "w": 1.0
        },
        {
          "character": "😜",
          "x": 5.0,
          "y": 2.0,
          "w": 1.0
        },
        {
          "character": "🤪",
          "x": 6.0,
          "y": 2.0,
          "w": 1.0
        },
        {
          "character": "😝",
          "x": 7.0,
          "y": 2.0,
          "w": 1.0
        },
        {
          "character": "🤑",
          "x": 8.0,
          "y": 2.0,
          "w": 1.0
        },
        {
          "character": "🤗",
          "x": 9.0,
          "y": 2.0,
          "w": 1.0
        },
        {
          "label": "ABC",
          "x": 0.0,
          "y": 3.0,
          "w": 1.5,
          "target": "Main"
        },
        {
          "character": "🤭",
          "x": 1.5,
          "y": 3.0,
          "w": 1.0
        },
        {
          "character": "🤫",
          "x": 2.5,
          "y": 3.0,
          "w": 1.0
        },
        {
          "character": "🤔",
          "x": 3.5,
          "y": 3.0,
          "w": 1.0
        },
        {
          "character": "🤐",
          "x": 4.5,
          "y": 3.0,
          "w": 1.0
        },
        {
          "character": "🤨",
          "x": 5.5,
          "y": 3.0,
          "w": 1.0
        },
        {
          "character": "😐",
          "x": 6.5,
          "y": 3.0,
          "w": 1.0
        },
        {
          "character": "😑",
          "x": 7.5,
          "y": 3.0,
          "w": 1.0
        },
        {
          "label": "↵",
          "character": "\n",
          "x": 8.5,
          "y": 3.0,
          "w": 1.5
        }
      ]
    }
  ]
}